<svg width="83" height="98" viewBox="0 0 83 98" fill="none" xmlns="http://www.w3.org/2000/svg">
<path d="M31.6899 91.5009C31.435 91.1429 31.3689 16.8677 31.3612 6.87414C31.3606 6.17024 31.7302 5.54553 32.3343 5.18414L39.9933 0.60181C40.6145 0.230167 41.388 0.223177 42.0158 0.583536L45.6408 2.66433C46.8046 3.2658 47.9281 3.94104 49.0046 4.68567C49.7402 5.19451 49.7168 5.91691 48.9511 6.37935C47.0869 7.50531 43.6565 9.52207 41.9669 10.5133C41.3498 10.8753 40.9763 11.5357 40.9819 12.2512C40.9984 14.3666 41.0343 18.6469 41.0554 18.6469C41.081 18.6469 54.3272 11.1753 56.8874 9.80065C57.1646 9.65182 57.458 9.65852 57.7377 9.80265C60.3926 11.1708 62.9672 12.6888 65.4494 14.3493C65.9964 14.7153 66.0084 15.1632 65.4479 15.5082C62.0216 17.6171 49.3093 25.0669 42.074 29.2888C41.4726 29.6397 41.1008 30.2756 41.0859 30.9717L41.0202 34.0423C40.987 35.5951 42.6502 36.5969 44.0003 35.8292C52.2076 31.162 68.5318 21.8865 72.6779 19.5307C73.2904 19.1827 74.0285 19.1895 74.641 19.5372L81.9782 23.7022C82.6042 24.0575 82.9909 24.7218 82.9909 25.4415V71.7277C82.9909 72.443 82.6092 73.1037 81.9892 73.4606C70.9475 79.8174 41.241 96.9121 40.9471 96.9121C40.7224 96.9102 31.8828 91.7462 31.6899 91.5009ZM72.3751 67.9936C72.9946 67.6376 73.3772 66.9782 73.3788 66.2638L73.4046 54.4841C73.4046 41.6165 73.3884 34.4109 73.3215 31.6C73.3015 30.76 72.7311 30.4416 71.9786 30.8154C70.5685 31.5157 69.1891 32.2764 67.8442 33.0951C67.2657 33.4474 66.9184 34.0778 66.9122 34.7552L66.6592 62.3511C66.6528 63.0583 66.2732 63.7096 65.661 64.0637C56.0095 69.6478 50.3478 72.8971 41.9174 77.7495C41.3292 78.0881 40.9491 78.7023 40.9288 79.3807C40.8942 80.5367 40.8995 81.6933 40.9447 82.8485C41.0014 84.2969 42.5793 85.1114 43.8363 84.3893L72.3751 67.9936ZM56.041 58.628C56.6572 58.2741 57.0394 57.6164 57.0445 56.9058C57.0945 49.9094 57.0901 45.5045 57.0744 42.8895C57.0654 41.388 55.4704 40.4658 54.1605 41.2C51.2384 42.8379 46.5082 45.5025 41.9705 48.1163C41.3517 48.4727 40.9713 49.1327 40.9713 49.8468V63.8286C40.9713 65.3662 42.6341 66.3287 43.9675 65.5628L56.041 58.628Z" fill="url(#paint0_linear)"/>
<path d="M15.7239 82.8597C15.0935 82.5058 14.7073 81.8414 14.7073 81.1184V16.7537C14.7073 16.05 15.0731 15.4005 15.6772 15.04C18.0601 13.6178 24.0164 10.0696 24.1272 10.0696C24.2096 10.0696 24.2377 87.5746 24.1272 87.5465C24.0394 87.5242 18.1415 84.2166 15.7239 82.8597Z" fill="url(#paint1_linear)"/>
<path d="M0.994692 73.434C0.378884 73.0759 0 72.4174 0 71.705V25.0671C0 24.3235 0.411261 23.642 1.07104 23.299C2.84046 22.3791 6.3545 20.5663 8.12868 19.7474C8.77944 19.447 9.20315 19.7402 9.20764 20.4569C9.25566 28.1185 9.52276 72.4839 9.30263 77.7301C9.28782 78.0829 9.09407 78.1434 8.78877 77.9658L0.994692 73.434Z" fill="url(#paint2_linear)"/>
<path d="M32.4773 92.2094C31.8643 91.8506 31.4876 91.1936 31.4876 90.4834V6.38992C31.4876 5.65338 31.8892 4.97816 32.5384 4.6302C34.9584 3.33306 40.7272 0.247131 40.8367 0.247131C40.9077 0.247131 41.1221 50.0811 41.1797 63.7951C41.1862 65.3406 42.8683 66.2612 44.1983 65.4741L55.9985 58.4913C56.6068 58.1313 56.9799 57.477 56.9799 56.7701V50.5123C56.9799 49.7494 57.4139 49.0529 58.0988 48.7168L63.9082 45.8659C65.2371 45.2137 66.7893 46.181 66.7893 47.6613V62.2163C66.7893 62.9173 66.4242 63.5635 65.8195 63.9181C61.6405 66.3683 46.2531 75.3101 42.1869 77.6726C41.5707 78.0306 41.196 78.6869 41.196 79.3995V82.4823C41.196 84.0246 42.8679 84.9865 44.2012 84.2113L72.3854 67.8245C73.0012 67.4664 73.3801 66.8078 73.3801 66.0955V41.7999C73.3801 41.0597 73.789 40.3799 74.443 40.0331L80.0631 37.0522C81.3951 36.3457 83.0002 37.3113 83.0002 38.8191V71.822C83.0002 72.5339 82.6218 73.1921 82.0066 73.5503L42.205 96.7251C41.5815 97.0881 40.8109 97.0872 40.1883 96.7228L32.4773 92.2094Z" fill="url(#paint3_linear)"/>
<path d="M15.7239 82.8596C15.0935 82.5057 14.7073 81.8413 14.7073 81.1183V16.7535C14.7073 16.0499 15.0731 15.4004 15.6772 15.0398C18.0601 13.6177 24.0164 10.0695 24.1272 10.0695C24.2096 10.0695 24.2377 87.5744 24.1272 87.5464C24.0394 87.524 18.1415 84.2165 15.7239 82.8596Z" fill="url(#paint4_linear)"/>
<path d="M0.994692 73.4321C0.378884 73.074 0 72.4154 0 71.7031V25.0652C0 24.3216 0.411261 23.64 1.07104 23.297C2.84046 22.3772 6.3545 20.5644 8.12868 19.7455C8.77944 19.4451 9.20315 19.7383 9.20764 20.455C9.25566 28.1166 9.52276 72.4819 9.30263 77.7282C9.28782 78.081 9.09407 78.1414 8.78877 77.9639L0.994692 73.4321Z" fill="url(#paint5_linear)"/>
<path d="M50.5837 33.3215C50.5837 32.6123 50.9594 31.9561 51.5709 31.5969L72.7863 19.1377C73.4343 18.7571 74.2378 18.77 74.8712 19.1743C77.2382 20.6851 82.8735 24.2851 82.9608 24.3709C83.0505 24.4591 61.6231 36.8471 53.5826 41.4907C52.2496 42.2605 50.5837 41.2984 50.5837 39.7591V33.3215Z" fill="url(#paint6_linear)"/>
<path d="M53.5707 22.7258C52.232 23.519 50.54 22.5467 50.5514 20.9906L50.5993 14.3918C50.6046 13.6616 51.0075 12.9923 51.6503 12.6458L56.4783 10.0435C57.097 9.71003 57.8455 9.72583 58.4496 10.0851L63.7663 13.2474C65.0711 14.0234 65.0695 15.9132 63.7634 16.687L53.5707 22.7258Z" fill="url(#paint7_linear)"/>
<defs>
<linearGradient id="paint0_linear" x1="57.1756" y1="0" x2="57.1756" y2="96.9121" gradientUnits="userSpaceOnUse">
<stop stop-color="#FFDD60"/>
<stop offset="1" stop-color="#FFB774"/>
</linearGradient>
<linearGradient id="paint1_linear" x1="19.4536" y1="10.0696" x2="19.4536" y2="87.5465" gradientUnits="userSpaceOnUse">
<stop stop-color="#FFDD60"/>
<stop offset="1" stop-color="#FFB774"/>
</linearGradient>
<linearGradient id="paint2_linear" x1="4.69423" y1="19.3284" x2="4.69423" y2="78.2369" gradientUnits="userSpaceOnUse">
<stop stop-color="#FFDD60"/>
<stop offset="1" stop-color="#FFB774"/>
</linearGradient>
<linearGradient id="paint3_linear" x1="57.2439" y1="0.247131" x2="57.2439" y2="97.3126" gradientUnits="userSpaceOnUse">
<stop stop-color="#FFDD60"/>
<stop offset="1" stop-color="#FFB774"/>
</linearGradient>
<linearGradient id="paint4_linear" x1="19.4536" y1="10.0695" x2="19.4536" y2="87.5464" gradientUnits="userSpaceOnUse">
<stop stop-color="#FFDD60"/>
<stop offset="1" stop-color="#FFB774"/>
</linearGradient>
<linearGradient id="paint5_linear" x1="4.69423" y1="19.3264" x2="4.69423" y2="78.2349" gradientUnits="userSpaceOnUse">
<stop stop-color="#FFDD60"/>
<stop offset="1" stop-color="#FFB774"/>
</linearGradient>
<linearGradient id="paint6_linear" x1="66.7724" y1="18.5176" x2="66.7724" y2="43.2219" gradientUnits="userSpaceOnUse">
<stop stop-color="#FFDD60"/>
<stop offset="1" stop-color="#FFB774"/>
</linearGradient>
<linearGradient id="paint7_linear" x1="58.5938" y1="9.50592" x2="58.5938" y2="24.5299" gradientUnits="userSpaceOnUse">
<stop stop-color="#FFDD60"/>
<stop offset="1" stop-color="#FFB774"/>
</linearGradient>
</defs>
</svg>
